{
    "count": 13, 
    "next": "http://swapi.co/api/planets/?page=3", 
    "previous": "http://swapi.co/api/planets/?page=1", 
    "results": [
        {
            "name": "Haruun Kal", 
            "rotation_period": "25", 
            "orbital_period": "383", 
            "diameter": "10120", 
            "climate": "temperate", 
            "gravity": "0.98", 
            "terrain": "toxic cloudsea, plateaus, volcanoes", 
            "surface_water": "unknown", 
            "population": "705300", 
            "residents": [
                "http://swapi.co/api/people/51/"
            ], 
            "films": [], 
            "created": "2014-12-20T10:12:28.980000Z", 
            "edited": "2014-12-20T20:58:18.491000Z", 
            "url": "http://swapi.co/api/planets/42/"
        }, 
        {
            "name": "Cerea", 
            "rotation_period": "27", 
            "orbital_period": "386", 
            "diameter": "unknown", 
            "climate": "temperate", 
            "gravity": "1", 
            "terrain": "verdant", 
            "surface_water": "20", 
            "population": "450000000", 
            "residents": [
                "http://swapi.co/api/people/52/"
            ], 
            "films": [], 
            "created": "2014-12-20T10:14:48.178000Z", 
            "edited": "2014-12-20T20:58:18.493000Z", 
            "url": "http://swapi.co/api/planets/43/"
        }, 
        {
            "name": "Glee Anselm", 
            "rotation_period": "33", 
            "orbital_period": "206", 
            "diameter": "15600", 
            "climate": "tropical, temperate", 
            "gravity": "1", 
            "terrain": "lakes, islands, swamps, seas", 
            "surface_water": "80", 
            "population": "500000000", 
            "residents": [
                "http://swapi.co/api/people/53/"
            ], 
            "films": [], 
            "created": "2014-12-20T10:18:26.110000Z", 
            "edited": "2014-12-20T20:58:18.495000Z", 
            "url": "http://swapi.co/api/planets/44/"
        }
    ]
}